Session #2: Data Processing
…
This function allows us to either add a new column, or apply some function to an existing column.

If we give dplyr::mutate a new column name (i.e. a column name that isn’t in the existing dataset), it will create a new column.

If we dplyr::mutate an existing column name, it will replace the existing column

dplyr::mutate

Let’s add new column containing the ratio between body_mass_g and flipper_length_mm

penguins %>%
  dplyr::mutate(ratio_mass_length = body_mass_g / flipper_length_mm)

# A tibble: 333 × 9
   species island    bill_length_mm bill_d…¹ flipp…² body_…³ sex    year ratio…⁴
   <fct>   <fct>              <dbl>    <dbl>   <int>   <int> <fct> <int>   <dbl>
 1 Adelie  Torgersen           39.1     18.7     181    3750 male   2007    20.7
 2 Adelie  Torgersen           39.5     17.4     186    3800 fema…  2007    20.4
 3 Adelie  Torgersen           40.3     18       195    3250 fema…  2007    16.7
 4 Adelie  Torgersen           36.7     19.3     193    3450 fema…  2007    17.9
 5 Adelie  Torgersen           39.3     20.6     190    3650 male   2007    19.2
 6 Adelie  Torgersen           38.9     17.8     181    3625 fema…  2007    20.0
 7 Adelie  Torgersen           39.2     19.6     195    4675 male   2007    24.0
 8 Adelie  Torgersen           41.1     17.6     182    3200 fema…  2007    17.6
 9 Adelie  Torgersen           38.6     21.2     191    3800 male   2007    19.9
10 Adelie  Torgersen           34.6     21.1     198    4400 male   2007    22.2
# … with 323 more rows, and abbreviated variable names ¹​bill_depth_mm,
#   ²​flipper_length_mm, ³​body_mass_g, ⁴​ratio_mass_length

dplyr::mutate

Let’s update the existing year column by adding 10 years to each value.

penguins %>%
  dplyr::mutate(year = year + 10) 

# A tibble: 333 × 8
   species island    bill_length_mm bill_depth_mm flipper_…¹ body_…² sex    year
   <fct>   <fct>              <dbl>         <dbl>      <int>   <int> <fct> <dbl>
 1 Adelie  Torgersen           39.1          18.7        181    3750 male   2017
 2 Adelie  Torgersen           39.5          17.4        186    3800 fema…  2017
 3 Adelie  Torgersen           40.3          18          195    3250 fema…  2017
 4 Adelie  Torgersen           36.7          19.3        193    3450 fema…  2017
 5 Adelie  Torgersen           39.3          20.6        190    3650 male   2017
 6 Adelie  Torgersen           38.9          17.8        181    3625 fema…  2017
 7 Adelie  Torgersen           39.2          19.6        195    4675 male   2017
 8 Adelie  Torgersen           41.1          17.6        182    3200 fema…  2017
 9 Adelie  Torgersen           38.6          21.2        191    3800 male   2017
10 Adelie  Torgersen           34.6          21.1        198    4400 male   2017
# … with 323 more rows, and abbreviated variable names ¹​flipper_length_mm,
#   ²​body_mass_g
…
Converting column/variable types

How do we change the species column from a <fct> to a <chr>?

penguins %>%
  dplyr::mutate(species = as.character(species))

# A tibble: 333 × 8
   species island    bill_length_mm bill_depth_mm flipper_…¹ body_…² sex    year
   <chr>   <fct>              <dbl>         <dbl>      <int>   <int> <fct> <int>
 1 Adelie  Torgersen           39.1          18.7        181    3750 male   2007
 2 Adelie  Torgersen           39.5          17.4        186    3800 fema…  2007
 3 Adelie  Torgersen           40.3          18          195    3250 fema…  2007
 4 Adelie  Torgersen           36.7          19.3        193    3450 fema…  2007
 5 Adelie  Torgersen           39.3          20.6        190    3650 male   2007
 6 Adelie  Torgersen           38.9          17.8        181    3625 fema…  2007
 7 Adelie  Torgersen           39.2          19.6        195    4675 male   2007
 8 Adelie  Torgersen           41.1          17.6        182    3200 fema…  2007
 9 Adelie  Torgersen           38.6          21.2        191    3800 male   2007
10 Adelie  Torgersen           34.6          21.1        198    4400 male   2007
# … with 323 more rows, and abbreviated variable names ¹​flipper_length_mm,
#   ²​body_mass_g

Converting column/variable types

We can change multiple variable types at the same time.

penguins %>%
  dplyr::mutate(species = as.character(species),
                bill_depth_mm = as.numeric(bill_depth_mm))

# A tibble: 333 × 8
   species island    bill_length_mm bill_depth_mm flipper_…¹ body_…² sex    year
   <chr>   <fct>              <dbl>         <dbl>      <int>   <int> <fct> <int>
 1 Adelie  Torgersen           39.1          18.7        181    3750 male   2007
 2 Adelie  Torgersen           39.5          17.4        186    3800 fema…  2007
 3 Adelie  Torgersen           40.3          18          195    3250 fema…  2007
 4 Adelie  Torgersen           36.7          19.3        193    3450 fema…  2007
 5 Adelie  Torgersen           39.3          20.6        190    3650 male   2007
 6 Adelie  Torgersen           38.9          17.8        181    3625 fema…  2007
 7 Adelie  Torgersen           39.2          19.6        195    4675 male   2007
 8 Adelie  Torgersen           41.1          17.6        182    3200 fema…  2007
 9 Adelie  Torgersen           38.6          21.2        191    3800 male   2007
10 Adelie  Torgersen           34.6          21.1        198    4400 male   2007
# … with 323 more rows, and abbreviated variable names ¹​flipper_length_mm,
#   ²​body_mass_g
…
